%YAML 1.1
%TAG !u! tag:unity3d.com,2011:
--- !u!1 &3114227344156472485
GameObject:
  m_ObjectHideFlags: 0
  m_CorrespondingSourceObject: {fileID: 0}
  m_PrefabInstance: {fileID: 0}
  m_PrefabAsset: {fileID: 0}
  serializedVersion: 6
  m_Component:
  - component: {fileID: 481416224225999233}
  - component: {fileID: 5625262406201185057}
  - component: {fileID: 3822804853630907987}
  m_Layer: 31
  m_Name: Layer1
  m_TagString: Untagged
  m_Icon: {fileID: 0}
  m_NavMeshLayer: 0
  m_StaticEditorFlags: 0
  m_IsActive: 1
--- !u!4 &481416224225999233
Transform:
  m_ObjectHideFlags: 0
  m_CorrespondingSourceObject: {fileID: 0}
  m_PrefabInstance: {fileID: 0}
  m_PrefabAsset: {fileID: 0}
  m_GameObject: {fileID: 3114227344156472485}
  m_LocalRotation: {x: -0, y: -0, z: -0, w: 1}
  m_LocalPosition: {x: 0, y: 0, z: 0}
  m_LocalScale: {x: 1, y: 1, z: 1}
  m_Children: []
  m_Father: {fileID: 5347502737093515033}
  m_RootOrder: 0
  m_LocalEulerAnglesHint: {x: 0, y: 0, z: 0}
--- !u!1839735485 &5625262406201185057
Tilemap:
  m_ObjectHideFlags: 0
  m_CorrespondingSourceObject: {fileID: 0}
  m_PrefabInstance: {fileID: 0}
  m_PrefabAsset: {fileID: 0}
  m_GameObject: {fileID: 3114227344156472485}
  m_Enabled: 1
  m_Tiles:
  - first: {x: -3, y: -13, z: 0}
    second:
      m_TileIndex: 41
      m_TileSpriteIndex: 41
      m_TileMatrixIndex: 0
      m_TileColorIndex: 0
      m_ObjectToInstantiate: {fileID: 0}
      m_TileFlags: 1
      m_ColliderType: 1
  - first: {x: -2, y: -13, z: 0}
    second:
      m_TileIndex: 42
      m_TileSpriteIndex: 42
      m_TileMatrixIndex: 0
      m_TileColorIndex: 0
      m_ObjectToInstantiate: {fileID: 0}
      m_TileFlags: 1
      m_ColliderType: 1
  - first: {x: -1, y: -13, z: 0}
    second:
      m_TileIndex: 43
      m_TileSpriteIndex: 43
      m_TileMatrixIndex: 0
      m_TileColorIndex: 0
      m_ObjectToInstantiate: {fileID: 0}
      m_TileFlags: 1
      m_ColliderType: 1
  - first: {x: 1, y: -13, z: 0}
    second:
      m_TileIndex: 44
      m_TileSpriteIndex: 44
      m_TileMatrixIndex: 0
      m_TileColorIndex: 0
      m_ObjectToInstantiate: {fileID: 0}
      m_TileFlags: 1
      m_ColliderType: 1
  - first: {x: 2, y: -13, z: 0}
    second:
      m_TileIndex: 45
      m_TileSpriteIndex: 45
      m_TileMatrixIndex: 0
      m_TileColorIndex: 0
      m_ObjectToInstantiate: {fileID: 0}
      m_TileFlags: 1
      m_ColliderType: 1
  - first: {x: -3, y: -12, z: 0}
    second:
      m_TileIndex: 36
      m_TileSpriteIndex: 36
      m_TileMatrixIndex: 0
      m_TileColorIndex: 0
      m_ObjectToInstantiate: {fileID: 0}
      m_TileFlags: 1
      m_ColliderType: 1
  - first: {x: -2, y: -12, z: 0}
    second:
      m_TileIndex: 37
      m_TileSpriteIndex: 37
      m_TileMatrixIndex: 0
      m_TileColorIndex: 0
      m_ObjectToInstantiate: {fileID: 0}
      m_TileFlags: 1
      m_ColliderType: 1
  - first: {x: -1, y: -12, z: 0}
    second:
      m_TileIndex: 38
      m_TileSpriteIndex: 38
      m_TileMatrixIndex: 0
      m_TileColorIndex: 0
      m_ObjectToInstantiate: {fileID: 0}
      m_TileFlags: 1
      m_ColliderType: 1
  - first: {x: 1, y: -12, z: 0}
    second:
      m_TileIndex: 39
      m_TileSpriteIndex: 39
      m_TileMatrixIndex: 0
      m_TileColorIndex: 0
      m_ObjectToInstantiate: {fileID: 0}
      m_TileFlags: 1
      m_ColliderType: 1
  - first: {x: 2, y: -12, z: 0}
    second:
      m_TileIndex: 40
      m_TileSpriteIndex: 40
      m_TileMatrixIndex: 0
      m_TileColorIndex: 0
      m_ObjectToInstantiate: {fileID: 0}
      m_TileFlags: 1
      m_ColliderType: 1
  - first: {x: -3, y: -11, z: 0}
    second:
      m_TileIndex: 31
      m_TileSpriteIndex: 31
      m_TileMatrixIndex: 0
      m_TileColorIndex: 0
      m_ObjectToInstantiate: {fileID: 0}
      m_TileFlags: 1
      m_ColliderType: 1
  - first: {x: -2, y: -11, z: 0}
    second:
      m_TileIndex: 32
      m_TileSpriteIndex: 32
      m_TileMatrixIndex: 0
      m_TileColorIndex: 0
      m_ObjectToInstantiate: {fileID: 0}
      m_TileFlags: 1
      m_ColliderType: 1
  - first: {x: -1, y: -11, z: 0}
    second:
      m_TileIndex: 33
      m_TileSpriteIndex: 33
      m_TileMatrixIndex: 0
      m_TileColorIndex: 0
      m_ObjectToInstantiate: {fileID: 0}
      m_TileFlags: 1
      m_ColliderType: 1
  - first: {x: 1, y: -11, z: 0}
    second:
      m_TileIndex: 34
      m_TileSpriteIndex: 34
      m_TileMatrixIndex: 0
      m_TileColorIndex: 0
      m_ObjectToInstantiate: {fileID: 0}
      m_TileFlags: 1
      m_ColliderType: 1
  - first: {x: 2, y: -11, z: 0}
    second:
      m_TileIndex: 35
      m_TileSpriteIndex: 35
      m_TileMatrixIndex: 0
      m_TileColorIndex: 0
      m_ObjectToInstantiate: {fileID: 0}
      m_TileFlags: 1
      m_ColliderType: 1
  - first: {x: -5, y: -9, z: 0}
    second:
      m_TileIndex: 26
      m_TileSpriteIndex: 26
      m_TileMatrixIndex: 0
      m_TileColorIndex: 0
      m_ObjectToInstantiate: {fileID: 0}
      m_TileFlags: 1
      m_ColliderType: 1
  - first: {x: -2, y: -9, z: 0}
    second:
      m_TileIndex: 27
      m_TileSpriteIndex: 27
      m_TileMatrixIndex: 0
      m_TileColorIndex: 0
      m_ObjectToInstantiate: {fileID: 0}
      m_TileFlags: 1
      m_ColliderType: 1
  - first: {x: -1, y: -9, z: 0}
    second:
      m_TileIndex: 28
      m_TileSpriteIndex: 28
      m_TileMatrixIndex: 0
      m_TileColorIndex: 0
      m_ObjectToInstantiate: {fileID: 0}
      m_TileFlags: 1
      m_ColliderType: 1
  - first: {x: 1, y: -9, z: 0}
    second:
      m_TileIndex: 29
      m_TileSpriteIndex: 29
      m_TileMatrixIndex: 0
      m_TileColorIndex: 0
      m_ObjectToInstantiate: {fileID: 0}
      m_TileFlags: 1
      m_ColliderType: 1
  - first: {x: -5, y: -8, z: 0}
    second:
      m_TileIndex: 21
      m_TileSpriteIndex: 21
      m_TileMatrixIndex: 0
      m_TileColorIndex: 0
      m_ObjectToInstantiate: {fileID: 0}
      m_TileFlags: 1
      m_ColliderType: 1
  - first: {x: -2, y: -8, z: 0}
    second:
      m_TileIndex: 22
      m_TileSpriteIndex: 22
      m_TileMatrixIndex: 0
      m_TileColorIndex: 0
      m_ObjectToInstantiate: {fileID: 0}
      m_TileFlags: 1
      m_ColliderType: 1
  - first: {x: -1, y: -8, z: 0}
    second:
      m_TileIndex: 23
      m_TileSpriteIndex: 23
      m_TileMatrixIndex: 0
      m_TileColorIndex: 0
      m_ObjectToInstantiate: {fileID: 0}
      m_TileFlags: 1
      m_ColliderType: 1
  - first: {x: 1, y: -8, z: 0}
    second:
      m_TileIndex: 24
      m_TileSpriteIndex: 24
      m_TileMatrixIndex: 0
      m_TileColorIndex: 0
      m_ObjectToInstantiate: {fileID: 0}
      m_TileFlags: 1
      m_ColliderType: 1
  - first: {x: 3, y: -8, z: 0}
    second:
      m_TileIndex: 30
      m_TileSpriteIndex: 30
      m_TileMatrixIndex: 0
      m_TileColorIndex: 0
      m_ObjectToInstantiate: {fileID: 0}
      m_TileFlags: 1
      m_ColliderType: 1
  - first: {x: -5, y: -7, z: 0}
    second:
      m_TileIndex: 16
      m_TileSpriteIndex: 18
      m_TileMatrixIndex: 0
      m_TileColorIndex: 0
      m_ObjectToInstantiate: {fileID: 0}
      m_TileFlags: 1
      m_ColliderType: 1
  - first: {x: -4, y: -7, z: 0}
    second:
      m_TileIndex: 18
      m_TileSpriteIndex: 17
      m_TileMatrixIndex: 0
      m_TileColorIndex: 0
      m_ObjectToInstantiate: {fileID: 0}
      m_TileFlags: 1
      m_ColliderType: 1
  - first: {x: -3, y: -7, z: 0}
    second:
      m_TileIndex: 17
      m_TileSpriteIndex: 16
      m_TileMatrixIndex: 0
      m_TileColorIndex: 0
      m_ObjectToInstantiate: {fileID: 0}
      m_TileFlags: 1
      m_ColliderType: 1
  - first: {x: 3, y: -7, z: 0}
    second:
      m_TileIndex: 25
      m_TileSpriteIndex: 25
      m_TileMatrixIndex: 0
      m_TileColorIndex: 0
      m_ObjectToInstantiate: {fileID: 0}
      m_TileFlags: 1
      m_ColliderType: 1
  - first: {x: 2, y: -6, z: 0}
    second:
      m_TileIndex: 20
      m_TileSpriteIndex: 20
      m_TileMatrixIndex: 0
      m_TileColorIndex: 0
      m_ObjectToInstantiate: {fileID: 0}
      m_TileFlags: 1
      m_ColliderType: 1
  - first: {x: 3, y: -6, z: 0}
    second:
      m_TileIndex: 19
      m_TileSpriteIndex: 19
      m_TileMatrixIndex: 0
      m_TileColorIndex: 0
      m_ObjectToInstantiate: {fileID: 0}
      m_TileFlags: 1
      m_ColliderType: 1
  - first: {x: -3, y: -4, z: 0}
    second:
      m_TileIndex: 12
      m_TileSpriteIndex: 12
      m_TileMatrixIndex: 0
      m_TileColorIndex: 0
      m_ObjectToInstantiate: {fileID: 0}
      m_TileFlags: 1
      m_ColliderType: 1
  - first: {x: -2, y: -4, z: 0}
    second:
      m_TileIndex: 13
      m_TileSpriteIndex: 13
      m_TileMatrixIndex: 0
      m_TileColorIndex: 0
      m_ObjectToInstantiate: {fileID: 0}
      m_TileFlags: 1
      m_ColliderType: 1
  - first: {x: -1, y: -4, z: 0}
    second:
      m_TileIndex: 14
      m_TileSpriteIndex: 14
      m_TileMatrixIndex: 0
      m_TileColorIndex: 0
      m_ObjectToInstantiate: {fileID: 0}
      m_TileFlags: 1
      m_ColliderType: 1
  - first: {x: 1, y: -4, z: 0}
    second:
      m_TileIndex: 15
      m_TileSpriteIndex: 15
      m_TileMatrixIndex: 0
      m_TileColorIndex: 0
      m_ObjectToInstantiate: {fileID: 0}
      m_TileFlags: 1
      m_ColliderType: 1
  - first: {x: -3, y: -2, z: 0}
    second:
      m_TileIndex: 8
      m_TileSpriteIndex: 8
      m_TileMatrixIndex: 0
      m_TileColorIndex: 0
      m_ObjectToInstantiate: {fileID: 0}
      m_TileFlags: 1
      m_ColliderType: 1
  - first: {x: -2, y: -2, z: 0}
    second:
      m_TileIndex: 9
      m_TileSpriteIndex: 9
      m_TileMatrixIndex: 0
      m_TileColorIndex: 0
      m_ObjectToInstantiate: {fileID: 0}
      m_TileFlags: 1
      m_ColliderType: 1
  - first: {x: -1, y: -2, z: 0}
    second:
      m_TileIndex: 10
      m_TileSpriteIndex: 10
      m_TileMatrixIndex: 0
      m_TileColorIndex: 0
      m_ObjectToInstantiate: {fileID: 0}
      m_TileFlags: 1
      m_ColliderType: 1
  - first: {x: 1, y: -2, z: 0}
    second:
      m_TileIndex: 11
      m_TileSpriteIndex: 11
      m_TileMatrixIndex: 0
      m_TileColorIndex: 0
      m_ObjectToInstantiate: {fileID: 0}
      m_TileFlags: 1
      m_ColliderType: 1
  - first: {x: -3, y: -1, z: 0}
    second:
      m_TileIndex: 4
      m_TileSpriteIndex: 4
      m_TileMatrixIndex: 0
      m_TileColorIndex: 0
      m_ObjectToInstantiate: {fileID: 0}
      m_TileFlags: 1
      m_ColliderType: 1
  - first: {x: -2, y: -1, z: 0}
    second:
      m_TileIndex: 5
      m_TileSpriteIndex: 5
      m_TileMatrixIndex: 0
      m_TileColorIndex: 0
      m_ObjectToInstantiate: {fileID: 0}
      m_TileFlags: 1
      m_ColliderType: 1
  - first: {x: -1, y: -1, z: 0}
    second:
      m_TileIndex: 6
      m_TileSpriteIndex: 6
      m_TileMatrixIndex: 0
      m_TileColorIndex: 0
      m_ObjectToInstantiate: {fileID: 0}
      m_TileFlags: 1
      m_ColliderType: 1
  - first: {x: 1, y: -1, z: 0}
    second:
      m_TileIndex: 7
      m_TileSpriteIndex: 7
      m_TileMatrixIndex: 0
      m_TileColorIndex: 0
      m_ObjectToInstantiate: {fileID: 0}
      m_TileFlags: 1
      m_ColliderType: 1
  - first: {x: -3, y: 0, z: 0}
    second:
      m_TileIndex: 0
      m_TileSpriteIndex: 0
      m_TileMatrixIndex: 0
      m_TileColorIndex: 0
      m_ObjectToInstantiate: {fileID: 0}
      m_TileFlags: 1
      m_ColliderType: 1
  - first: {x: -2, y: 0, z: 0}
    second:
      m_TileIndex: 1
      m_TileSpriteIndex: 1
      m_TileMatrixIndex: 0
      m_TileColorIndex: 0
      m_ObjectToInstantiate: {fileID: 0}
      m_TileFlags: 1
      m_ColliderType: 1
  - first: {x: -1, y: 0, z: 0}
    second:
      m_TileIndex: 2
      m_TileSpriteIndex: 2
      m_TileMatrixIndex: 0
      m_TileColorIndex: 0
      m_ObjectToInstantiate: {fileID: 0}
      m_TileFlags: 1
      m_ColliderType: 1
  - first: {x: 1, y: 0, z: 0}
    second:
      m_TileIndex: 3
      m_TileSpriteIndex: 3
      m_TileMatrixIndex: 0
      m_TileColorIndex: 0
      m_ObjectToInstantiate: {fileID: 0}
      m_TileFlags: 1
      m_ColliderType: 1
  m_AnimatedTiles: {}
  m_TileAssetArray:
  - m_RefCount: 1
    m_Data: {fileID: 11400000, guid: 6ff824c9a70b10d438e0caefe3ae85bb, type: 2}
  - m_RefCount: 1
    m_Data: {fileID: 11400000, guid: 0b6829d5d47064642918eafcb012c19c, type: 2}
  - m_RefCount: 1
    m_Data: {fileID: 11400000, guid: 14ba24208dd6e7f4e934a6d295b87db0, type: 2}
  - m_RefCount: 1
    m_Data: {fileID: 11400000, guid: 88cfd6ef489ca584aa24b7657d667807, type: 2}
  - m_RefCount: 1
    m_Data: {fileID: 11400000, guid: bfd1f65fc021a7843811698b9c6a9e9a, type: 2}
  - m_RefCount: 1
    m_Data: {fileID: 11400000, guid: 2081b1be2a10fc74ebd74920a745c089, type: 2}
  - m_RefCount: 1
    m_Data: {fileID: 11400000, guid: 9b2ad21aefcdafe4c955c8868283bfeb, type: 2}
  - m_RefCount: 1
    m_Data: {fileID: 11400000, guid: 9ca51df6433ea5c45817782475f8ee08, type: 2}
  - m_RefCount: 1
    m_Data: {fileID: 11400000, guid: 088062f3df9dede4db4618fdaa839bec, type: 2}
  - m_RefCount: 1
    m_Data: {fileID: 11400000, guid: 42e826a79730e4f4ea8ca8a4ec8cf5a3, type: 2}
  - m_RefCount: 1
    m_Data: {fileID: 11400000, guid: 61795986cc612114c90924ac69b3a7b6, type: 2}
  - m_RefCount: 1
    m_Data: {fileID: 11400000, guid: 51b3dfda4cada3740bf32150ac8c2356, type: 2}
  - m_RefCount: 1
    m_Data: {fileID: 11400000, guid: db140b53b6f5d3f47bd8fedb2b9fcf48, type: 2}
  - m_RefCount: 1
    m_Data: {fileID: 11400000, guid: d7fb3ea30b46e3043a75c001904384ed, type: 2}
  - m_RefCount: 1
    m_Data: {fileID: 11400000, guid: ed105799540c8414281bdb61e6c38015, type: 2}
  - m_RefCount: 1
    m_Data: {fileID: 11400000, guid: 1f1f22f4b5b181e4796cf18330c219c9, type: 2}
  - m_RefCount: 1
    m_Data: {fileID: 11400000, guid: dc010302e7265594ea4260c48d51de15, type: 2}
  - m_RefCount: 1
    m_Data: {fileID: 11400000, guid: 2ed5fab7c310b6a4db78d5b06900007e, type: 2}
  - m_RefCount: 1
    m_Data: {fileID: 11400000, guid: 3f197e7403cd61e439209e80e85a0ba2, type: 2}
  - m_RefCount: 1
    m_Data: {fileID: 11400000, guid: 7fdd691145bbace4eb6cd9b6c08afa7b, type: 2}
  - m_RefCount: 1
    m_Data: {fileID: 11400000, guid: 415651ef17dbccb48b815f43f8573728, type: 2}
  - m_RefCount: 1
    m_Data: {fileID: 11400000, guid: 0c3527ace7955a2428410c16e0129c66, type: 2}
  - m_RefCount: 1
    m_Data: {fileID: 11400000, guid: 5cbbb3270d890a9448c012a7a8f08f3f, type: 2}
  - m_RefCount: 1
    m_Data: {fileID: 11400000, guid: f29612c10a34a3640bf0586c3d8ccfd8, type: 2}
  - m_RefCount: 1
    m_Data: {fileID: 11400000, guid: 65609cb98291be747be27ccd054b8806, type: 2}
  - m_RefCount: 1
    m_Data: {fileID: 11400000, guid: cac90b6e93ec75f48a181380d1a59b2a, type: 2}
  - m_RefCount: 1
    m_Data: {fileID: 11400000, guid: e175e70ab572dd84cb250c63a1a08bf5, type: 2}
  - m_RefCount: 1
    m_Data: {fileID: 11400000, guid: 601b39c11377bfc4a8a4cc8ab8d00c57, type: 2}
  - m_RefCount: 1
    m_Data: {fileID: 11400000, guid: 30c3e035bc33b624b88e87013aaa6db5, type: 2}
  - m_RefCount: 1
    m_Data: {fileID: 11400000, guid: 26da204b18ce0574c9835b6a672c85dc, type: 2}
  - m_RefCount: 1
    m_Data: {fileID: 11400000, guid: 4d7056f0dc1e0424da7f37a8bc3081e4, type: 2}
  - m_RefCount: 1
    m_Data: {fileID: 11400000, guid: 13bda38b6397baa41802662a5c409dd8, type: 2}
  - m_RefCount: 1
    m_Data: {fileID: 11400000, guid: ad20ed65038d7d84cb0beb09e32f7b1f, type: 2}
  - m_RefCount: 1
    m_Data: {fileID: 11400000, guid: edd7b91e1cc62a047a7b403e78bf668a, type: 2}
  - m_RefCount: 1
    m_Data: {fileID: 11400000, guid: eee9c713785f97f4186b4cc7b7c781a1, type: 2}
  - m_RefCount: 1
    m_Data: {fileID: 11400000, guid: ddbab7b059f676a46a31c58ff681f410, type: 2}
  - m_RefCount: 1
    m_Data: {fileID: 11400000, guid: afc7ca44746b5e4408e32f580a3f08c1, type: 2}
  - m_RefCount: 1
    m_Data: {fileID: 11400000, guid: c7fb4475187089348b83cd6e72bd6bc8, type: 2}
  - m_RefCount: 1
    m_Data: {fileID: 11400000, guid: 8afd208402aeb4b47be4271d2be34403, type: 2}
  - m_RefCount: 1
    m_Data: {fileID: 11400000, guid: 9c03a8b558683114d801f198ef220aa4, type: 2}
  - m_RefCount: 1
    m_Data: {fileID: 11400000, guid: 4dc580e14cfdab74a93a3870bda1e601, type: 2}
  - m_RefCount: 1
    m_Data: {fileID: 11400000, guid: e07e999a303fb43468f6a68078ff5f49, type: 2}
  - m_RefCount: 1
    m_Data: {fileID: 11400000, guid: 4734e40c67d3e884b91a5c069ae13c08, type: 2}
  - m_RefCount: 1
    m_Data: {fileID: 11400000, guid: d53c135d3b4f00b42ba393156c9e5aeb, type: 2}
  - m_RefCount: 1
    m_Data: {fileID: 11400000, guid: 1ca8e85550e058d438b7bdfc2871a05b, type: 2}
  - m_RefCount: 1
    m_Data: {fileID: 11400000, guid: 84d1c1135add2334c80232bca9fd2b81, type: 2}
  m_TileSpriteArray:
  - m_RefCount: 1
    m_Data: {fileID: -6414447125379547148, guid: 793a0f4d36066174f8701527244a9094,
      type: 3}
  - m_RefCount: 1
    m_Data: {fileID: -2276109588449258574, guid: 793a0f4d36066174f8701527244a9094,
      type: 3}
  - m_RefCount: 1
    m_Data: {fileID: 7622431064557552515, guid: 793a0f4d36066174f8701527244a9094,
      type: 3}
  - m_RefCount: 1
    m_Data: {fileID: 289114549585270027, guid: 793a0f4d36066174f8701527244a9094, type: 3}
  - m_RefCount: 1
    m_Data: {fileID: -5862157076625757123, guid: 793a0f4d36066174f8701527244a9094,
      type: 3}
  - m_RefCount: 1
    m_Data: {fileID: 7565696428887314959, guid: 793a0f4d36066174f8701527244a9094,
      type: 3}
  - m_RefCount: 1
    m_Data: {fileID: 3104076937310148729, guid: 793a0f4d36066174f8701527244a9094,
      type: 3}
  - m_RefCount: 1
    m_Data: {fileID: 4777146490511550170, guid: 793a0f4d36066174f8701527244a9094,
      type: 3}
  - m_RefCount: 1
    m_Data: {fileID: 4021284656184010451, guid: 793a0f4d36066174f8701527244a9094,
      type: 3}
  - m_RefCount: 1
    m_Data: {fileID: -5428507737112726026, guid: 793a0f4d36066174f8701527244a9094,
      type: 3}
  - m_RefCount: 1
    m_Data: {fileID: 8721707918184771119, guid: 793a0f4d36066174f8701527244a9094,
      type: 3}
  - m_RefCount: 1
    m_Data: {fileID: 374688490947754656, guid: 793a0f4d36066174f8701527244a9094, type: 3}
  - m_RefCount: 1
    m_Data: {fileID: -1693060807349068911, guid: 793a0f4d36066174f8701527244a9094,
      type: 3}
  - m_RefCount: 1
    m_Data: {fileID: -568864715573125675, guid: 793a0f4d36066174f8701527244a9094,
      type: 3}
  - m_RefCount: 1
    m_Data: {fileID: 124453552786969483, guid: 793a0f4d36066174f8701527244a9094, type: 3}
  - m_RefCount: 1
    m_Data: {fileID: -3357515910591759238, guid: 793a0f4d36066174f8701527244a9094,
      type: 3}
  - m_RefCount: 1
    m_Data: {fileID: -1236713991046615032, guid: 34cd6ac020f462a4395ca6f12c3d53ef,
      type: 3}
  - m_RefCount: 1
    m_Data: {fileID: -3326836957996475874, guid: 34cd6ac020f462a4395ca6f12c3d53ef,
      type: 3}
  - m_RefCount: 1
    m_Data: {fileID: -2464266514383608195, guid: 34cd6ac020f462a4395ca6f12c3d53ef,
      type: 3}
  - m_RefCount: 1
    m_Data: {fileID: -5972448355421142556, guid: 34cd6ac020f462a4395ca6f12c3d53ef,
      type: 3}
  - m_RefCount: 1
    m_Data: {fileID: 7323906098350758705, guid: 34cd6ac020f462a4395ca6f12c3d53ef,
      type: 3}
  - m_RefCount: 1
    m_Data: {fileID: -4977721373819348528, guid: 34cd6ac020f462a4395ca6f12c3d53ef,
      type: 3}
  - m_RefCount: 1
    m_Data: {fileID: 7953296568139915108, guid: 34cd6ac020f462a4395ca6f12c3d53ef,
      type: 3}
  - m_RefCount: 1
    m_Data: {fileID: 1958745200148787322, guid: 34cd6ac020f462a4395ca6f12c3d53ef,
      type: 3}
  - m_RefCount: 1
    m_Data: {fileID: 7799159119227759483, guid: 34cd6ac020f462a4395ca6f12c3d53ef,
      type: 3}
  - m_RefCount: 1
    m_Data: {fileID: -2755257858965140955, guid: 34cd6ac020f462a4395ca6f12c3d53ef,
      type: 3}
  - m_RefCount: 1
    m_Data: {fileID: -3493280607249542649, guid: 34cd6ac020f462a4395ca6f12c3d53ef,
      type: 3}
  - m_RefCount: 1
    m_Data: {fileID: -7832389824997676707, guid: 34cd6ac020f462a4395ca6f12c3d53ef,
      type: 3}
  - m_RefCount: 1
    m_Data: {fileID: 6972465368094823745, guid: 34cd6ac020f462a4395ca6f12c3d53ef,
      type: 3}
  - m_RefCount: 1
    m_Data: {fileID: -7671020578840251174, guid: 34cd6ac020f462a4395ca6f12c3d53ef,
      type: 3}
  - m_RefCount: 1
    m_Data: {fileID: 2766323726693326924, guid: 34cd6ac020f462a4395ca6f12c3d53ef,
      type: 3}
  - m_RefCount: 1
    m_Data: {fileID: -3503154757471595975, guid: 34cd6ac020f462a4395ca6f12c3d53ef,
      type: 3}
  - m_RefCount: 1
    m_Data: {fileID: -1667590691872097069, guid: 34cd6ac020f462a4395ca6f12c3d53ef,
      type: 3}
  - m_RefCount: 1
    m_Data: {fileID: -2488111991826676060, guid: 34cd6ac020f462a4395ca6f12c3d53ef,
      type: 3}
  - m_RefCount: 1
    m_Data: {fileID: -7175372319361646676, guid: 34cd6ac020f462a4395ca6f12c3d53ef,
      type: 3}
  - m_RefCount: 1
    m_Data: {fileID: -7647882774218309960, guid: 34cd6ac020f462a4395ca6f12c3d53ef,
      type: 3}
  - m_RefCount: 1
    m_Data: {fileID: -3542295685721467227, guid: 34cd6ac020f462a4395ca6f12c3d53ef,
      type: 3}
  - m_RefCount: 1
    m_Data: {fileID: -8076291029264883859, guid: 34cd6ac020f462a4395ca6f12c3d53ef,
      type: 3}
  - m_RefCount: 1
    m_Data: {fileID: -3487811798477773700, guid: 34cd6ac020f462a4395ca6f12c3d53ef,
      type: 3}
  - m_RefCount: 1
    m_Data: {fileID: -5134054752372163016, guid: 34cd6ac020f462a4395ca6f12c3d53ef,
      type: 3}
  - m_RefCount: 1
    m_Data: {fileID: 6192572789505845407, guid: 34cd6ac020f462a4395ca6f12c3d53ef,
      type: 3}
  - m_RefCount: 1
    m_Data: {fileID: -4897907173415269231, guid: 34cd6ac020f462a4395ca6f12c3d53ef,
      type: 3}
  - m_RefCount: 1
    m_Data: {fileID: 3803662930465603148, guid: 34cd6ac020f462a4395ca6f12c3d53ef,
      type: 3}
  - m_RefCount: 1
    m_Data: {fileID: -1076426586580465502, guid: 34cd6ac020f462a4395ca6f12c3d53ef,
      type: 3}
  - m_RefCount: 1
    m_Data: {fileID: -5576478142290952502, guid: 34cd6ac020f462a4395ca6f12c3d53ef,
      type: 3}
  - m_RefCount: 1
    m_Data: {fileID: 3747544219709766277, guid: 34cd6ac020f462a4395ca6f12c3d53ef,
      type: 3}
  m_TileMatrixArray:
  - m_RefCount: 46
    m_Data:
      e00: 1
      e01: 0
      e02: 0
      e03: 0
      e10: 0
      e11: 1
      e12: 0
      e13: 0
      e20: 0
      e21: 0
      e22: 1
      e23: 0
      e30: 0
      e31: 0
      e32: 0
      e33: 1
  m_TileColorArray:
  - m_RefCount: 46
    m_Data: {r: 1, g: 1, b: 1, a: 1}
  m_AnimationFrameRate: 1
  m_Color: {r: 1, g: 1, b: 1, a: 1}
  m_Origin: {x: -5, y: -13, z: 0}
  m_Size: {x: 11, y: 14, z: 1}
  m_TileAnchor: {x: 0.5, y: 0.5, z: 0}
  m_TileOrientation: 0
  m_TileOrientationMatrix:
    e00: 1
    e01: 0
    e02: 0
    e03: 0
    e10: 0
    e11: 1
    e12: 0
    e13: 0
    e20: 0
    e21: 0
    e22: 1
    e23: 0
    e30: 0
    e31: 0
    e32: 0
    e33: 1
--- !u!483693784 &3822804853630907987
TilemapRenderer:
  m_ObjectHideFlags: 0
  m_CorrespondingSourceObject: {fileID: 0}
  m_PrefabInstance: {fileID: 0}
  m_PrefabAsset: {fileID: 0}
  m_GameObject: {fileID: 3114227344156472485}
  m_Enabled: 0
  m_CastShadows: 0
  m_ReceiveShadows: 0
  m_DynamicOccludee: 0
  m_MotionVectors: 1
  m_LightProbeUsage: 0
  m_ReflectionProbeUsage: 0
  m_RenderingLayerMask: 1
  m_RendererPriority: 0
  m_Materials:
  - {fileID: 10754, guid: 0000000000000000f000000000000000, type: 0}
  m_StaticBatchInfo:
    firstSubMesh: 0
    subMeshCount: 0
  m_StaticBatchRoot: {fileID: 0}
  m_ProbeAnchor: {fileID: 0}
  m_LightProbeVolumeOverride: {fileID: 0}
  m_ScaleInLightmap: 1
  m_PreserveUVs: 0
  m_IgnoreNormalsForChartDetection: 0
  m_ImportantGI: 0
  m_StitchLightmapSeams: 1
  m_SelectedEditorRenderState: 0
  m_MinimumChartSize: 4
  m_AutoUVMaxDistance: 0.5
  m_AutoUVMaxAngle: 89
  m_LightmapParameters: {fileID: 0}
  m_SortingLayerID: 0
  m_SortingLayer: 0
  m_SortingOrder: 0
  m_ChunkSize: {x: 32, y: 32, z: 32}
  m_ChunkCullingBounds: {x: 0, y: 0, z: 0}
  m_MaxChunkCount: 16
  m_MaxFrameAge: 16
  m_SortOrder: 0
  m_Mode: 0
  m_DetectChunkCullingBounds: 0
  m_MaskInteraction: 0
--- !u!1 &4906217991607062779
GameObject:
  m_ObjectHideFlags: 0
  m_CorrespondingSourceObject: {fileID: 0}
  m_PrefabInstance: {fileID: 0}
  m_PrefabAsset: {fileID: 0}
  serializedVersion: 6
  m_Component:
  - component: {fileID: 5347502737093515033}
  - component: {fileID: 4654504172246370114}
  m_Layer: 31
  m_Name: Piastrella_Manuale
  m_TagString: Untagged
  m_Icon: {fileID: 0}
  m_NavMeshLayer: 0
  m_StaticEditorFlags: 0
  m_IsActive: 1
--- !u!4 &5347502737093515033
Transform:
  m_ObjectHideFlags: 0
  m_CorrespondingSourceObject: {fileID: 0}
  m_PrefabInstance: {fileID: 0}
  m_PrefabAsset: {fileID: 0}
  m_GameObject: {fileID: 4906217991607062779}
  m_LocalRotation: {x: 0, y: 0, z: 0, w: 1}
  m_LocalPosition: {x: 0, y: 0, z: 0}
  m_LocalScale: {x: 1, y: 1, z: 1}
  m_Children:
  - {fileID: 481416224225999233}
  m_Father: {fileID: 0}
  m_RootOrder: 0
  m_LocalEulerAnglesHint: {x: 0, y: 0, z: 0}
--- !u!156049354 &4654504172246370114
Grid:
  m_ObjectHideFlags: 0
  m_CorrespondingSourceObject: {fileID: 0}
  m_PrefabInstance: {fileID: 0}
  m_PrefabAsset: {fileID: 0}
  m_GameObject: {fileID: 4906217991607062779}
  m_Enabled: 1
  m_CellSize: {x: 1, y: 1, z: 0}
  m_CellGap: {x: 0, y: 0, z: 0}
  m_CellLayout: 0
  m_CellSwizzle: 0
--- !u!114 &2114692685602232313
MonoBehaviour:
  m_ObjectHideFlags: 0
  m_CorrespondingSourceObject: {fileID: 0}
  m_PrefabInstance: {fileID: 0}
  m_PrefabAsset: {fileID: 0}
  m_GameObject: {fileID: 0}
  m_Enabled: 1
  m_EditorHideFlags: 0
  m_Script: {fileID: 12395, guid: 0000000000000000e000000000000000, type: 0}
  m_Name: Palette Settings
  m_EditorClassIdentifier: 
  cellSizing: 0
